{
  "kind": "collectionType",
  "collectionName": "seccions",
  "info": {
    "singularName": "seccion",
    "pluralName": "seccions",
    "displayName": "seccion",
    "description": ""
  },
  "options": {
    "draftAndPublish": true
  },
  "pluginOptions": {},
  "attributes": {
    "titulo": {
      "type": "string"
    },
    "img": {
      "type": "media",
      "multiple": false,
      "required": false,
      "allowedTypes": [
        "images",
        "files",
        "videos",
        "audios"
      ]
    },
    "url": {
      "type": "string",
      "default": "/seccion/"
    }
  }
}
